com/texoit/challenge/ChallengeApplication.class
com/texoit/challenge/service/MovieService.class
com/texoit/challenge/model/Movie.class
com/texoit/challenge/controller/MovieController.class
com/texoit/challenge/model/MovieEntity.class
com/texoit/challenge/tasks/ImportDAOTask.class
com/texoit/challenge/swagger/SwaggerConfig.class
com/texoit/challenge/tasks/BatchConfig.class
com/texoit/challenge/repository/MovieRepository.class
com/texoit/challenge/service/MovieServiceImpl$1.class
com/texoit/challenge/model/MovieResponse.class
com/texoit/challenge/model/MovieAwardIntervalResponse.class
com/texoit/challenge/service/MovieServiceImpl.class
